<?xml version="1.0" encoding="UTF-8" standalone="no"?>
<!-- Created with Inkscape (http://www.inkscape.org/) -->

<svg
   xmlns:dc="http://purl.org/dc/elements/1.1/"
   xmlns:cc="http://creativecommons.org/ns#"
   xmlns:rdf="http://www.w3.org/1999/02/22-rdf-syntax-ns#"
   xmlns:svg="http://www.w3.org/2000/svg"
   xmlns="http://www.w3.org/2000/svg"
   xmlns:sodipodi="http://sodipodi.sourceforge.net/DTD/sodipodi-0.dtd"
   xmlns:inkscape="http://www.inkscape.org/namespaces/inkscape"
   version="1.1"
   id="svg834"
   xml:space="preserve"
   width="540.79999"
   height="489.60001"
   viewBox="0 0 540.79999 489.60001"
   sodipodi:docname="lho.svg"
   inkscape:version="0.92.4 5da689c313, 2019-01-14"><metadata
     id="metadata840"><rdf:RDF><cc:Work
         rdf:about=""><dc:format>image/svg+xml</dc:format><dc:type
           rdf:resource="http://purl.org/dc/dcmitype/StillImage" /><dc:title></dc:title></cc:Work></rdf:RDF></metadata><defs
     id="defs838" /><sodipodi:namedview
     pagecolor="#ffffff"
     bordercolor="#666666"
     borderopacity="1"
     objecttolerance="10"
     gridtolerance="10"
     guidetolerance="10"
     inkscape:pageopacity="0"
     inkscape:pageshadow="2"
     inkscape:window-width="1280"
     inkscape:window-height="693"
     id="namedview836"
     showgrid="false"
     inkscape:zoom="4.1911764"
     inkscape:cx="461.27719"
     inkscape:cy="244.8"
     inkscape:window-x="0"
     inkscape:window-y="27"
     inkscape:window-maximized="0"
     inkscape:current-layer="g976" /><g
     id="g842"
     inkscape:groupmode="layer"
     inkscape:label="lho"
     transform="matrix(1.3333333,0,0,1.3333333,0,1.624e-5)"><g
       id="g844"><g
         id="g846"><path
           d="m 18.73,263.52 c 17.602,-2.403 45.602,-18.403 49.602,-20.801 4,-2.403 22.398,-22.403 32,-37.602 9.598,-15.199 18.398,-33.597 21.598,-44 3.203,-10.398 6.402,-20.801 7.203,-26.398 0.797,-5.602 -0.801,-18.801 -3.203,-24.403 5.601,-4 16.8,-4.796 21.601,5.602 4.801,10.398 8.801,26.398 8.801,36.801 0,10.398 -17.602,44 -6.402,48.801 11.203,4.796 13.601,11.199 71.203,-3.204 57.597,-14.398 81.597,-16 87.199,-4.796 5.598,11.199 -27.199,16 -44.801,19.199 -17.601,3.199 -57.617,18.105 -52,25.597 3.481,4.645 7.5,3.59 16.567,6.793 15.691,5.536 15.445,7.973 35.035,14.676 19.543,6.688 18.273,25.781 12.133,28.985 -6.141,3.203 -11.215,5.07 -37.11,-9.614 -11.48,-4.269 -25.426,-7.105 -37.691,-8.172 -12.266,-1.066 -19.735,44.797 -33.067,51.735 -13.336,6.933 -28.8,6.398 -38.402,6.398 -9.598,0 -14.93,1.602 -20.266,-1.066 -5.332,-2.668 -20.265,1.066 -28.265,5.332 0,0 -30.934,14.933 -33.602,18.133"
           style="fill:#e5d4b1;fill-opacity:1;fill-rule:nonzero;stroke:#000000;stroke-width:2.4000001;stroke-linecap:butt;stroke-linejoin:miter;stroke-miterlimit:4;stroke-dasharray:none;stroke-opacity:1"
           id="path848"
           inkscape:connector-curvature="0" /></g><g
         id="g850"><path
           d="m 204.73,237.117 c -27.199,-1.597 -36.8,24.535 -43.199,38.403"
           style="fill:none;stroke:#897f6a;stroke-width:1.60000002;stroke-linecap:butt;stroke-linejoin:miter;stroke-miterlimit:4;stroke-dasharray:none;stroke-opacity:1"
           id="path852"
           inkscape:connector-curvature="0" /></g><g
         id="g854"><path
           d="m 147.398,216.848 c -0.269,20.269 -8.8,37.336 -20.265,43.734"
           style="fill:none;stroke:#897f6a;stroke-width:1.60000002;stroke-linecap:butt;stroke-linejoin:miter;stroke-miterlimit:4;stroke-dasharray:none;stroke-opacity:1"
           id="path856"
           inkscape:connector-curvature="0" /></g><g
         id="g858"><path
           d="m 200.465,205.117 c 6.398,1.067 13.867,16 10.664,20.266"
           style="fill:none;stroke:#897f6a;stroke-width:1.60000002;stroke-linecap:butt;stroke-linejoin:miter;stroke-miterlimit:4;stroke-dasharray:none;stroke-opacity:1"
           id="path860"
           inkscape:connector-curvature="0" /></g><g
         id="g862"><path
           d="m 234.598,196.582 c 4.265,3.199 12.8,10.668 10.668,14.934"
           style="fill:none;stroke:#897f6a;stroke-width:1.60000002;stroke-linecap:butt;stroke-linejoin:miter;stroke-miterlimit:4;stroke-dasharray:none;stroke-opacity:1"
           id="path864"
           inkscape:connector-curvature="0" /></g><g
         id="g866"><path
           d="m 272.996,190.184 c 5.336,3.199 7.07,12.402 8.137,14.535"
           style="fill:none;stroke:#897f6a;stroke-width:1.60000002;stroke-linecap:butt;stroke-linejoin:miter;stroke-miterlimit:4;stroke-dasharray:none;stroke-opacity:1"
           id="path868"
           inkscape:connector-curvature="0" /></g><g
         id="g870"><path
           d="m 214.332,244.586 c -6.402,3.199 -9.602,13.863 -7.469,21.332"
           style="fill:none;stroke:#897f6a;stroke-width:1.60000002;stroke-linecap:butt;stroke-linejoin:miter;stroke-miterlimit:4;stroke-dasharray:none;stroke-opacity:1"
           id="path872"
           inkscape:connector-curvature="0" /></g><g
         id="g874"><path
           d="m 231.281,250.402 c -5.336,3.2 -5.801,19.196 -3.668,22.395"
           style="fill:none;stroke:#897f6a;stroke-width:1.60000002;stroke-linecap:butt;stroke-linejoin:miter;stroke-miterlimit:4;stroke-dasharray:none;stroke-opacity:1"
           id="path876"
           inkscape:connector-curvature="0" /></g><g
         id="g878"><path
           d="m 251.637,259.359 c -6.918,5.188 -7.672,12.426 -4.071,21.172"
           style="fill:none;stroke:#897f6a;stroke-width:1.60000002;stroke-linecap:butt;stroke-linejoin:miter;stroke-miterlimit:4;stroke-dasharray:none;stroke-opacity:1"
           id="path880"
           inkscape:connector-curvature="0" /></g><g
         id="g882"><path
           d="m 157.133,209.52 c 3.199,8 5.597,14.398 4.797,19.199"
           style="fill:none;stroke:#897f6a;stroke-width:1.60000002;stroke-linecap:butt;stroke-linejoin:miter;stroke-miterlimit:4;stroke-dasharray:none;stroke-opacity:1"
           id="path884"
           inkscape:connector-curvature="0" /></g><g
         id="g886"><path
           d="m 156.332,152.719 c -9.559,1.363 -2.141,2.601 -20,-0.801"
           style="fill:none;stroke:#897f6a;stroke-width:1.60000002;stroke-linecap:butt;stroke-linejoin:miter;stroke-miterlimit:4;stroke-dasharray:none;stroke-opacity:1"
           id="path888"
           inkscape:connector-curvature="0" /></g><g
         id="g890"><path
           d="m 72.996,249.918 c 3.203,9.602 6.402,12.801 11.734,16"
           style="fill:none;stroke:#897f6a;stroke-width:1.60000002;stroke-linecap:butt;stroke-linejoin:miter;stroke-miterlimit:4;stroke-dasharray:none;stroke-opacity:1"
           id="path892"
           inkscape:connector-curvature="0" /></g><g
         id="g894"><path
           d="m 152.465,320.051 c -12.727,-2.543 -21.867,-4.266 -28.801,-6.399 -6.934,-2.132 -17.066,-8 -19.734,-13.336 -2.664,-5.332 -0.532,-6.398 1.066,-10.132 1.602,-3.731 19.199,-1.598 23.469,0 4.265,1.601 8,3.203 25.597,5.867 17.602,2.668 22.403,4 31.469,2.933 7.434,-0.875 -1.066,17.868 -4.801,20 -3.734,2.133 -4.265,5.868 -28.265,1.067 z"
           style="fill:#e5d4b1;fill-opacity:1;fill-rule:nonzero;stroke:#000000;stroke-width:2.4000001;stroke-linecap:butt;stroke-linejoin:miter;stroke-miterlimit:4;stroke-dasharray:none;stroke-opacity:1"
           id="path896"
           inkscape:connector-curvature="0" /></g><g
         id="g898"><path
           d="m 138.891,269.918 c -15.118,-1.066 -22.68,-2.133 -26.75,2.133 -4.071,4.265 -2.325,8.535 -1.161,9.601 1.161,1.067 14.536,6.934 21.512,9.067 6.981,2.133 8.141,0.531 22.098,3.734 13.953,3.199 15.117,4.266 19.187,5.863 4.071,1.602 12.211,1.067 19.77,-4.796 7.558,-5.868 6.394,-16 5.816,-19.204 -0.582,-3.199 -1.164,-10.132 -15.703,-11.199 -14.535,-1.066 -9.883,3.735 -28.488,4.266 -18.61,0.535 -16.281,0.535 -16.281,0.535 z"
           style="fill:#e5d4b1;fill-opacity:1;fill-rule:nonzero;stroke:#000000;stroke-width:2.4000001;stroke-linecap:butt;stroke-linejoin:miter;stroke-miterlimit:4;stroke-dasharray:none;stroke-opacity:1"
           id="path900"
           inkscape:connector-curvature="0" /></g><g
         id="g902"><path
           d="m 195.664,275.25 c 1.539,13.844 -0.887,14.535 -8.531,20.27"
           style="fill:none;stroke:#897f6a;stroke-width:1.60000002;stroke-linecap:butt;stroke-linejoin:miter;stroke-miterlimit:4;stroke-dasharray:none;stroke-opacity:1"
           id="path904"
           inkscape:connector-curvature="0" /></g><g
         id="g906"><path
           d="m 172.199,275.516 c 0,4.265 -1.066,13.867 -1.066,13.867"
           style="fill:none;stroke:#897f6a;stroke-width:1.60000002;stroke-linecap:butt;stroke-linejoin:miter;stroke-miterlimit:4;stroke-dasharray:none;stroke-opacity:1"
           id="path908"
           inkscape:connector-curvature="0" /></g><g
         id="g910"><path
           d="m 145.797,274.184 c 0,2.132 -1.067,10.664 -1.067,13.867"
           style="fill:none;stroke:#897f6a;stroke-width:1.60000002;stroke-linecap:butt;stroke-linejoin:miter;stroke-miterlimit:4;stroke-dasharray:none;stroke-opacity:1"
           id="path912"
           inkscape:connector-curvature="0" /></g><g
         id="g914"><path
           d="m 140.465,298.184 c 0,3.203 -5.332,13.867 -5.332,13.867"
           style="fill:none;stroke:#897f6a;stroke-width:1.60000002;stroke-linecap:butt;stroke-linejoin:miter;stroke-miterlimit:4;stroke-dasharray:none;stroke-opacity:1"
           id="path916"
           inkscape:connector-curvature="0" /></g><g
         id="g918"><path
           d="m 166.332,304.316 c -1.066,2.137 -2.133,11.735 -5.336,12.801"
           style="fill:none;stroke:#897f6a;stroke-width:1.60000002;stroke-linecap:butt;stroke-linejoin:miter;stroke-miterlimit:4;stroke-dasharray:none;stroke-opacity:1"
           id="path920"
           inkscape:connector-curvature="0" /></g><g
         id="g922"><path
           d="m 67.664,275.52 c 5.332,9.597 8.535,34.132 13.867,39.464"
           style="fill:none;stroke:#897f6a;stroke-width:1.60000002;stroke-linecap:butt;stroke-linejoin:miter;stroke-miterlimit:4;stroke-dasharray:none;stroke-opacity:1"
           id="path924"
           inkscape:connector-curvature="0" /></g><g
         id="g926"><path
           d="m 133.531,93.117 0.535,-39.199"
           style="fill:#408040;fill-opacity:1;fill-rule:nonzero;stroke:#963c96;stroke-width:7.19999981;stroke-linecap:round;stroke-linejoin:miter;stroke-miterlimit:4;stroke-dasharray:none;stroke-opacity:1"
           id="path928"
           inkscape:connector-curvature="0" /></g><g
         id="g930"><path
           d="m 131.867,96.195 c -0.84,-0.445 -1.512,-1.32 -1.711,-2.234 -0.09,-0.406 -0.058,-7.199 0.067,-15.922 0.121,-8.367 0.226,-16.551 0.234,-18.191 l 0.012,-2.981 1.808,-1.445 1.805,-1.442 1.758,1.422 1.754,1.422 -0.071,1.75 c -0.039,0.961 -0.16,9.199 -0.265,18.301 -0.11,9.402 -0.27,16.844 -0.367,17.227 -0.211,0.824 -1.028,1.785 -1.84,2.171 -0.832,0.395 -2.363,0.356 -3.184,-0.078 z"
           style="fill:#408040;fill-opacity:1;fill-rule:nonzero;stroke:#000000;stroke-width:0.178947;stroke-linecap:butt;stroke-linejoin:miter;stroke-miterlimit:4;stroke-dasharray:none;stroke-opacity:1"
           id="path932"
           inkscape:connector-curvature="0" /></g><g
         id="g934"><path
           d="m 131.867,96.195 c -0.84,-0.445 -1.512,-1.32 -1.711,-2.234 -0.09,-0.406 -0.058,-7.199 0.067,-15.922 0.121,-8.367 0.226,-16.551 0.234,-18.191 l 0.012,-2.981 1.808,-1.445 1.805,-1.442 1.758,1.422 1.754,1.422 -0.071,1.75 c -0.039,0.961 -0.16,9.199 -0.265,18.301 -0.11,9.402 -0.27,16.844 -0.367,17.227 -0.211,0.824 -1.028,1.785 -1.84,2.171 -0.832,0.395 -2.363,0.356 -3.184,-0.078 z"
           style="fill:#408040;fill-opacity:1;fill-rule:nonzero;stroke:#408040;stroke-width:0.178947;stroke-linecap:butt;stroke-linejoin:miter;stroke-miterlimit:4;stroke-dasharray:none;stroke-opacity:1"
           id="path936"
           inkscape:connector-curvature="0" /></g><g
         id="g938"><path
           d="m 131.867,96.203 c -0.844,-0.457 -1.515,-1.332 -1.711,-2.242 -0.09,-0.406 -0.058,-7.199 0.067,-15.922 0.121,-8.367 0.226,-16.551 0.234,-18.191 l 0.012,-2.981 3.609,-2.883 1.395,1.11 c 1.257,1.004 1.371,1.144 1.136,1.41 -0.218,0.25 -0.289,2.269 -0.433,12.527 -0.16,11.211 -0.141,24.867 0.035,25.895 0.059,0.32 -0.09,0.558 -0.606,0.976 -0.589,0.481 -0.847,0.567 -1.878,0.61 -0.934,0.039 -1.348,-0.028 -1.86,-0.309 z"
           style="fill:#408040;fill-opacity:1;fill-rule:nonzero;stroke:#408040;stroke-width:0.178947;stroke-linecap:butt;stroke-linejoin:miter;stroke-miterlimit:4;stroke-dasharray:none;stroke-opacity:1"
           id="path940"
           inkscape:connector-curvature="0" /></g><g
         id="g942"><path
           d="m 131.867,96.203 c -0.363,-0.195 -0.879,-0.641 -1.144,-0.988 l -0.481,-0.633 0.117,-18.023 c 0.063,-9.914 0.176,-18.45 0.246,-18.969 0.129,-0.93 0.157,-0.961 1.805,-2.274 l 1.668,-1.332 1.395,1.11 c 1.257,1.004 1.371,1.144 1.136,1.41 -0.218,0.25 -0.289,2.269 -0.433,12.527 -0.16,11.211 -0.141,24.867 0.035,25.895 0.059,0.32 -0.09,0.558 -0.606,0.976 -0.589,0.481 -0.847,0.567 -1.878,0.61 -0.934,0.039 -1.348,-0.028 -1.86,-0.309 z"
           style="fill:#408040;fill-opacity:1;fill-rule:nonzero;stroke:#408040;stroke-width:0.178947;stroke-linecap:butt;stroke-linejoin:miter;stroke-miterlimit:4;stroke-dasharray:none;stroke-opacity:1"
           id="path944"
           inkscape:connector-curvature="0" /></g><path
         d="M 152.715,68.727 134.066,20.488 115.414,68.727 134.066,53.918 Z"
         style="fill:#408040;fill-opacity:1;fill-rule:nonzero;stroke:none"
         id="path946"
         inkscape:connector-curvature="0" /><g
         id="g948"
         style="fill:#3333b2;fill-opacity:1"><path
           d="m 321.121,188.855 38.477,-7.515"
           style="fill:#3333b2;fill-opacity:1;fill-rule:nonzero;stroke:#2828ff;stroke-width:7.19999981;stroke-linecap:round;stroke-linejoin:miter;stroke-miterlimit:4;stroke-dasharray:none;stroke-opacity:1"
           id="path950"
           inkscape:connector-curvature="0" /></g><path
         d="m 348.926,202.633 43.39,-28.145 -51.039,-8.367 18.321,15.219 z"
         style="fill:#3333b2;fill-opacity:1;fill-rule:nonzero;stroke:none"
         id="path952"
         inkscape:connector-curvature="0" /><g
         id="g954"><path
           d="m 291.215,288.691 24.633,10.2"
           style="fill:none;stroke:#e12828;stroke-width:7.19999981;stroke-linecap:round;stroke-linejoin:miter;stroke-miterlimit:4;stroke-dasharray:none;stroke-opacity:1"
           id="path956"
           inkscape:connector-curvature="0" /></g><path
         d="m 297.867,317.617 39.199,-10.574 -22.035,-34.102 0.817,25.95 z"
         style="fill:#e12828;fill-opacity:1;fill-rule:nonzero;stroke:none"
         id="path958"
         inkscape:connector-curvature="0" /><path
         d="m 348.945,141.012 -0.035,0.031 -0.035,0.039 -0.043,0.035 -0.086,0.078 -0.047,0.043 -0.047,0.047 -0.05,0.043 -0.047,0.047 -0.055,0.051 -0.105,0.101 -0.098,0.098 -0.102,0.113 -0.093,0.102 -0.047,0.055 -0.043,0.058 -0.039,0.051 -0.043,0.051 -0.035,0.054 -0.04,0.051 -0.027,0.055 -0.031,0.051 -0.02,0.054 -0.019,0.047 -0.016,0.047 -0.015,0.051 -0.008,0.043 -0.004,0.047 c 0,0.261 0.262,0.523 0.523,0.523 0.242,0 0.371,-0.187 0.504,-0.344 0.309,-0.394 0.906,-1.125 2.067,-1.695 0.179,-0.109 0.441,-0.242 0.441,-0.551 0,-0.261 -0.18,-0.394 -0.367,-0.523 -0.578,-0.395 -0.86,-0.863 -1.074,-1.485 -0.047,-0.238 -0.161,-0.582 -0.52,-0.582 -0.367,0 -0.527,0.344 -0.527,0.551 0,0.129 0.211,0.965 0.625,1.516 h -8.801 c -0.441,0 -0.918,0 -0.918,0.523 0,0.524 0.477,0.524 0.918,0.524 z"
         style="fill:#3333b2;fill-opacity:1;fill-rule:nonzero;stroke:none"
         id="path960"
         inkscape:connector-curvature="0" /><path
         d="m 346.293,146.684 -0.043,-0.09 -0.047,-0.09 -0.047,-0.082 -0.051,-0.086 -0.054,-0.082 -0.051,-0.086 -0.055,-0.078 -0.054,-0.074 -0.067,-0.078 -0.054,-0.067 -0.063,-0.074 -0.07,-0.067 -0.063,-0.066 -0.074,-0.062 -0.066,-0.055 -0.149,-0.117 -0.078,-0.047 -0.078,-0.055 -0.086,-0.039 -0.082,-0.043 -0.086,-0.043 -0.086,-0.031 -0.09,-0.035 -0.094,-0.028 -0.097,-0.027 -0.094,-0.02 -0.098,-0.015 -0.105,-0.016 -0.102,-0.011 -0.109,-0.004 h -0.105 l 0.023,0.57 c 1.699,0 2.066,2.141 2.066,2.293 0,0.168 -0.046,0.32 -0.074,0.453 l -1.312,5.125 c -0.129,0.465 -0.129,0.512 -0.524,0.965 -1.148,1.437 -2.226,1.851 -2.953,1.851 -1.301,0 -1.668,-1.433 -1.668,-2.457 0,-1.304 0.832,-4.515 1.43,-5.722 0.816,-1.543 1.996,-2.508 3.035,-2.508 l -0.023,-0.57 c -3.059,0 -6.293,3.836 -6.293,7.652 0,2.461 1.429,4.18 3.472,4.18 0.512,0 1.824,-0.11 3.395,-1.961 0.215,1.101 1.121,1.961 2.375,1.961 0.918,0 1.515,-0.598 1.933,-1.434 0.442,-0.941 0.789,-2.539 0.789,-2.59 0,-0.262 -0.238,-0.262 -0.316,-0.262 -0.262,0 -0.281,0.106 -0.367,0.473 -0.438,1.699 -0.918,3.238 -1.981,3.238 -0.703,0 -0.789,-0.675 -0.789,-1.203 0,-0.574 0.047,-0.781 0.336,-1.933 0.293,-1.098 0.348,-1.36 0.582,-2.352 l 0.934,-3.656 c 0.191,-0.731 0.191,-0.785 0.191,-0.887 0,-0.449 -0.32,-0.715 -0.761,-0.715 -0.625,0 -1.02,0.586 -1.102,1.157 z"
         style="fill:#3333b2;fill-opacity:1;fill-rule:nonzero;stroke:none"
         id="path962"
         inkscape:connector-curvature="0" /><path
         d="m 318.938,242.125 -0.036,0.031 -0.035,0.039 -0.043,0.035 -0.086,0.079 -0.047,0.043 -0.046,0.046 -0.051,0.043 -0.047,0.047 -0.055,0.047 -0.097,0.102 -0.207,0.207 -0.047,0.058 -0.047,0.055 -0.047,0.051 -0.043,0.051 -0.039,0.058 -0.043,0.055 -0.039,0.051 -0.031,0.05 -0.032,0.055 -0.031,0.051 -0.019,0.055 -0.04,0.093 -0.015,0.047 -0.004,0.047 v 0.047 c 0,0.262 0.262,0.527 0.523,0.527 0.239,0 0.368,-0.191 0.5,-0.347 0.309,-0.395 0.907,-1.125 2.067,-1.7 0.179,-0.105 0.441,-0.238 0.441,-0.546 0,-0.262 -0.18,-0.395 -0.367,-0.524 -0.578,-0.394 -0.859,-0.859 -1.074,-1.484 -0.047,-0.239 -0.16,-0.582 -0.516,-0.582 -0.371,0 -0.523,0.343 -0.523,0.55 0,0.129 0.203,0.965 0.617,1.516 h -8.801 c -0.441,0 -0.918,0 -0.918,0.524 0,0.523 0.477,0.523 0.918,0.523 z"
         style="fill:#e12828;fill-opacity:1;fill-rule:nonzero;stroke:none"
         id="path964"
         inkscape:connector-curvature="0" /><path
         d="m 314.051,246.684 v -0.008 l -0.008,-0.012 v -0.035 l -0.004,-0.012 v -0.012 l -0.004,-0.007 -0.008,-0.012 -0.004,-0.016 -0.003,-0.011 -0.008,-0.016 -0.004,-0.012 -0.012,-0.015 -0.019,-0.02 -0.012,-0.016 -0.004,-0.003 -0.012,-0.008 -0.008,-0.008 -0.011,-0.008 -0.004,-0.004 -0.012,-0.004 -0.004,-0.007 -0.023,-0.008 h -0.012 l -0.008,-0.008 -0.012,-0.004 h -0.011 l -0.008,-0.004 -0.012,-0.008 h -0.027 l -0.016,-0.004 h -0.023 l -0.016,-0.004 h -0.027 c -0.61,0 -2.512,0.215 -3.192,0.262 -0.214,0.024 -0.503,0.051 -0.503,0.524 0,0.316 0.242,0.316 0.636,0.316 1.254,0 1.301,0.176 1.301,0.438 0,0.191 -0.234,1.078 -0.367,1.621 l -2.141,8.519 c -0.308,1.313 -0.418,1.731 -0.418,2.641 0,2.48 1.383,4.105 3.321,4.105 v -0.578 c -0.895,0 -1.754,-0.703 -1.754,-2.637 0,-0.5 0,-0.992 0.414,-2.64 l 0.578,-2.407 c 0.156,-0.578 0.156,-0.624 0.394,-0.914 1.278,-1.691 2.457,-2.086 3.137,-2.086 0.941,0 1.645,0.778 1.645,2.461 0,1.536 -0.864,4.536 -1.332,5.539 -0.86,1.747 -2.067,2.684 -3.082,2.684 v 0.578 c 3.082,0 6.293,-3.89 6.293,-7.656 0,-2.379 -1.383,-4.176 -3.473,-4.176 -1.195,0 -2.27,0.75 -3.059,1.563 z"
         style="fill:#e12828;fill-opacity:1;fill-rule:nonzero;stroke:none"
         id="path966"
         inkscape:connector-curvature="0" /><path
         d="m 104.828,55.727 -0.039,0.031 -0.035,0.035 -0.043,0.035 -0.043,0.039 -0.043,0.043 -0.047,0.039 -0.047,0.047 -0.051,0.043 -0.199,0.199 -0.105,0.102 -0.102,0.109 -0.047,0.051 -0.047,0.055 -0.046,0.05 -0.043,0.059 -0.039,0.051 -0.043,0.055 -0.036,0.05 -0.039,0.055 -0.027,0.051 -0.031,0.054 -0.02,0.051 -0.019,0.047 -0.016,0.047 -0.016,0.055 -0.007,0.039 v 0.047 c 0,0.265 0.261,0.527 0.527,0.527 0.234,0 0.367,-0.191 0.496,-0.348 0.309,-0.394 0.906,-1.121 2.067,-1.695 0.179,-0.109 0.441,-0.242 0.441,-0.551 0,-0.261 -0.18,-0.39 -0.367,-0.523 -0.578,-0.395 -0.86,-0.86 -1.074,-1.485 -0.047,-0.238 -0.161,-0.582 -0.516,-0.582 -0.371,0 -0.524,0.344 -0.524,0.551 0,0.129 0.204,0.965 0.618,1.516 h -8.801 c -0.442,0 -0.918,0 -0.918,0.523 0,0.528 0.476,0.528 0.918,0.528 z"
         style="fill:#408040;fill-opacity:1;fill-rule:nonzero;stroke:none"
         id="path968"
         inkscape:connector-curvature="0" /><path
         d="m 102.527,61.336 h -0.152 l -0.078,0.008 h -0.074 l -0.071,0.004 -0.074,0.011 -0.039,0.004 -0.07,0.016 -0.039,0.008 -0.032,0.008 -0.035,0.011 -0.039,0.012 -0.035,0.008 -0.031,0.015 -0.035,0.016 -0.039,0.016 -0.032,0.023 -0.035,0.02 -0.039,0.019 -0.031,0.027 -0.035,0.024 -0.039,0.031 -0.032,0.024 -0.035,0.031 -0.031,0.039 c -0.422,0.394 -0.469,0.832 -0.469,1.012 0,0.632 0.469,0.918 0.965,0.918 0.758,0 1.469,-0.629 1.469,-1.668 0,-1.282 -1.231,-2.246 -3.086,-2.246 -3.527,0 -7.004,3.734 -7.004,7.418 0,2.351 1.516,4.417 4.227,4.417 3.742,0 5.937,-2.769 5.937,-3.085 0,-0.153 -0.156,-0.34 -0.312,-0.34 -0.133,0 -0.18,0.058 -0.344,0.261 -2.067,2.586 -4.91,2.586 -5.223,2.586 -1.648,0 -2.351,-1.273 -2.351,-2.847 0,-1.067 0.515,-3.61 1.414,-5.227 0.804,-1.488 2.242,-2.609 3.675,-2.609 0.899,0 1.887,0.336 2.254,1.035 z"
         style="fill:#408040;fill-opacity:1;fill-rule:nonzero;stroke:none"
         id="path970"
         inkscape:connector-curvature="0" /><g
         id="g972"
         transform="scale(1,-1)"><path
           d="m 131.332,-95.168 c -1.437,1.438 -1.504,1.996 -1.074,9.059 0.254,4.136 0.461,12.457 0.461,18.492 0,10.937 0.008,10.969 1.808,12.148 1.696,1.114 1.899,1.106 3.254,-0.121 1.391,-1.262 1.438,-2.015 1.235,-20.195 -0.2,-17.738 -0.297,-18.949 -1.602,-19.903 -1.84,-1.343 -2.273,-1.289 -4.082,0.52 z"
           style="fill:#408040;fill-opacity:1;fill-rule:nonzero;stroke:#408040;stroke-width:0.71578902;stroke-linecap:butt;stroke-linejoin:miter;stroke-miterlimit:4;stroke-dasharray:none;stroke-opacity:1"
           id="path974"
           inkscape:connector-curvature="0" /></g><g
         id="g976"
         style="fill:#3333b2;fill-opacity:1"><path
           d="m 319.02,191.445 c -1.473,-1.121 -1.598,-3.125 -0.29,-4.57 1.075,-1.187 2.684,-1.586 18.637,-4.648 9.606,-1.844 17.703,-3.43 17.992,-3.528 0.293,-0.097 1.317,0.473 2.278,1.262 l 1.75,1.441 -1.012,1.91 -1.016,1.915 -17.207,3.394 c -18.297,3.609 -19.836,3.817 -21.132,2.824 z"
           style="fill:#3333b2;fill-opacity:1;fill-rule:nonzero;stroke:#3333b2;stroke-width:0.50613999;stroke-linecap:butt;stroke-linejoin:miter;stroke-miterlimit:4;stroke-dasharray:none;stroke-opacity:1"
           id="path978"
           inkscape:connector-curvature="0" /></g></g></g></svg>